db/raid_tb.vcd
$date
	Fri Dec  5 03:31:40 2025
$end

$version
	Synopsys VCS version U-2023.03-SP2_Full64
$end

$timescale
	1ps
$end

$comment Csum: 1 f186e7888279f076 $end


$scope module testbench $end
$var reg 1 ! clk $end
$var reg 1 " rst_n $end
$var reg 1 # ena $end
$var wire 1 $ ui_in [7] $end
$var wire 1 % ui_in [6] $end
$var wire 1 & ui_in [5] $end
$var wire 1 ' ui_in [4] $end
$var wire 1 ( ui_in [3] $end
$var wire 1 ) ui_in [2] $end
$var wire 1 * ui_in [1] $end
$var wire 1 + ui_in [0] $end
$var wire 8 , uo_out [7:0] $end
$var wire 8 - uio_in [7:0] $end
$var wire 8 . uio_out [7:0] $end
$var wire 8 / uio_oe [7:0] $end

$scope begin unnamed$$_vcs_0 $end
$upscope $end


$scope begin unnamed$$_0 $end
$upscope $end


$scope begin unnamed$$_vcs_1 $end
$upscope $end


$scope module mgmt_if $end
$var reg 1 0 sclk $end
$var reg 1 1 cs_n $end
$var reg 1 2 mosi $end
$var reg 1 3 miso $end
$upscope $end


$scope module main_host_if $end
$var reg 1 4 sclk $end
$var reg 1 5 cs_n $end
$var reg 1 6 mosi $end
$var reg 1 7 miso $end
$upscope $end


$scope module sec_host_if $end
$var reg 1 8 sclk $end
$var reg 1 9 cs_n $end
$var reg 1 : mosi $end
$var reg 1 ; miso $end
$upscope $end


$scope module main_flash_if $end
$var reg 1 < sclk $end
$var reg 1 = cs_n $end
$var reg 1 > mosi $end
$var reg 1 ? miso $end
$var reg 1 @ miso_drv $end
$upscope $end


$scope module sec_flash_if $end
$var reg 1 A sclk $end
$var reg 1 B cs_n $end
$var reg 1 C mosi $end
$var reg 1 D miso $end
$var reg 1 E miso_drv $end
$upscope $end


$scope module dut $end
$var wire 1 $ ui_in [7] $end
$var wire 1 % ui_in [6] $end
$var wire 1 & ui_in [5] $end
$var wire 1 ' ui_in [4] $end
$var wire 1 ( ui_in [3] $end
$var wire 1 ) ui_in [2] $end
$var wire 1 * ui_in [1] $end
$var wire 1 + ui_in [0] $end
$var wire 8 , uo_out [7:0] $end
$var wire 8 - uio_in [7:0] $end
$var wire 8 . uio_out [7:0] $end
$var wire 8 F uio_oe [7:0] $end
$var wire 1 G ena $end
$var wire 1 ! clk $end
$var wire 1 " rst_n $end
$var wire 1 H mh_miso_internal $end
$var wire 1 I sh_miso_internal $end
$var wire 1 J mgmt_miso_internal $end
$var wire 1 K mf_clk_internal $end
$var wire 1 L mf_cs_n_internal $end
$var wire 1 M mf_mosi_internal $end
$var wire 1 N sf_clk_internal $end
$var wire 1 O sf_cs_n_internal $end
$var wire 1 P sf_mosi_internal $end
$var wire 1 Q _unused $end

$scope module u_raider $end
$var wire 1 ! clk $end
$var wire 1 " rst_n $end
$var wire 1 + mh_clk $end
$var wire 1 * mh_cs_n $end
$var wire 1 ) mh_mosi $end
$var wire 1 H mh_miso $end
$var wire 1 ( sh_clk $end
$var wire 1 ' sh_cs_n $end
$var wire 1 & sh_mosi $end
$var wire 1 I sh_miso $end
$var wire 1 % mgmt_clk $end
$var wire 1 $ mgmt_cs_n $end
$var wire 1 R mgmt_mosi $end
$var wire 1 J mgmt_miso $end
$var wire 1 K mf_clk $end
$var wire 1 L mf_cs_n $end
$var wire 1 M mf_mosi $end
$var wire 1 S mf_miso $end
$var wire 1 N sf_clk $end
$var wire 1 O sf_cs_n $end
$var wire 1 P sf_mosi $end
$var wire 1 T sf_miso $end
$var wire 1 U rst $end
$var wire 1 V h_clk $end
$var wire 1 W h_cs_n $end
$var wire 1 X h_mosi $end
$var wire 1 Y h_miso $end
$var wire 8 Z control_reg [7:0] $end
$var wire 8 [ status_reg [7:0] $end
$var wire 1 \ sel0 $end
$var wire 1 ] sel1 $end
$var wire 1 ^ flash_select $end
$var wire 1 _ default_flash_select $end
$var wire 24 ` addr0_start [23:0] $end
$var wire 24 a addr0_end [23:0] $end
$var wire 24 b addr1_start [23:0] $end
$var wire 24 c addr1_end [23:0] $end
$var wire 1 d range0_enable $end
$var wire 1 e range0_flash_select $end
$var wire 1 f range1_enable $end
$var wire 1 g range1_flash_select $end
$var wire 8 h debug_instruction [7:0] $end
$var wire 24 i debug_address [23:0] $end
$var wire 3 j debug_state [2:0] $end
$var wire 2 k flash_mode [1:0] $end
$var wire 1 l host_select $end
$var wire 1 m switching_blocked $end
$var wire 1 n active_transaction $end
$var wire 1 o mode_switch_pending $end
$var wire 1 p active_mode [1] $end
$var wire 1 q active_mode [0] $end

$scope module u_host_mux $end
$var wire 1 ! clk $end
$var wire 1 r rst $end
$var wire 1 + mh_clk $end
$var wire 1 * mh_cs_n $end
$var wire 1 ) mh_mosi $end
$var wire 1 H mh_miso $end
$var wire 1 ( sh_clk $end
$var wire 1 ' sh_cs_n $end
$var wire 1 & sh_mosi $end
$var wire 1 I sh_miso $end
$var wire 1 V h_clk $end
$var wire 1 W h_cs_n $end
$var wire 1 X h_mosi $end
$var wire 1 Y h_miso $end
$var wire 1 l host_select $end
$var wire 1 m switching_blocked $end
$var wire 1 n active_transaction $end
$var wire 1 s safe_to_switch $end
$var reg 1 t host_select_safe $end
$var reg 1 m host_select_pending $end
$upscope $end


$scope module u_flash_mux_no_miso $end
$var wire 1 ! clk $end
$var wire 1 r rst $end
$var wire 1 V h_clk $end
$var wire 1 W h_cs_n $end
$var wire 1 X h_mosi $end
$var wire 1 K mf_clk $end
$var wire 1 L mf_cs_n $end
$var wire 1 M mf_mosi $end
$var wire 1 N sf_clk $end
$var wire 1 O sf_cs_n $end
$var wire 1 P sf_mosi $end
$var wire 1 \ sel0 $end
$var wire 1 ] sel1 $end
$var wire 1 o mode_switch_pending $end
$var wire 1 p active_mode [1] $end
$var wire 1 q active_mode [0] $end
$var wire 1 W safe_to_switch $end
$var reg 1 q sel0_safe $end
$var reg 1 p sel1_safe $end
$var reg 1 o mode_change_pending $end
$upscope $end


$scope module u_instruction_decoder $end
$var wire 1 ! clk $end
$var wire 1 r rst $end
$var wire 1 W h_cs_n $end
$var wire 1 V h_clk $end
$var wire 1 X h_mosi $end
$var wire 24 ` addr0_start [23:0] $end
$var wire 24 a addr0_end [23:0] $end
$var wire 1 d range0_enable $end
$var wire 1 e range0_flash_select $end
$var wire 24 b addr1_start [23:0] $end
$var wire 24 c addr1_end [23:0] $end
$var wire 1 f range1_enable $end
$var wire 1 g range1_flash_select $end
$var wire 1 u default_flash_select $end
$var reg 1 v flash_select $end
$var reg 8 h debug_instruction [7:0] $end
$var reg 24 i debug_address [23:0] $end
$var reg 3 j debug_state [2:0] $end
$var reg 3 w state [2:0] $end
$var reg 3 x next_state [2:0] $end
$var reg 5 y bit_counter [4:0] $end
$var reg 8 z shift_reg [7:0] $end
$var reg 8 { addr_byte_count [7:0] $end
$var reg 1 | is_read_cmd $end
$var reg 1 } h_clk_r1 $end
$var reg 1 ~ h_clk_r2 $end
$var reg 1 "! h_cs_n_r1 $end
$var reg 1 "" h_cs_n_r2 $end
$var reg 1 "# h_mosi_r1 $end
$var reg 1 "$ h_mosi_r2 $end
$var wire 1 "% sclk_rising_edge $end
$var wire 1 "& cs_falling_edge $end
$var wire 1 "' cs_rising_edge $end

$scope begin unnamed$$_0 $end
$var reg 24 "( full_address [23:0] $end
$upscope $end

$upscope $end


$scope module u_flash_mux_miso $end
$var wire 1 S mf_miso $end
$var wire 1 T sf_miso $end
$var wire 1 ^ flash_select $end
$var wire 1 Y h_miso $end
$upscope $end


$scope module u_serial_interface $end
$var wire 1 ! clk $end
$var wire 1 r rst $end
$var wire 1 % mgmt_clk $end
$var wire 1 $ mgmt_cs_n $end
$var wire 1 R mgmt_mosi $end
$var reg 1 ") mgmt_miso $end
$var wire 24 ` addr0_start [23:0] $end
$var wire 24 a addr0_end [23:0] $end
$var wire 1 d range0_enable $end
$var wire 1 e range0_flash_select $end
$var wire 24 b addr1_start [23:0] $end
$var wire 24 c addr1_end [23:0] $end
$var wire 1 f range1_enable $end
$var wire 1 g range1_flash_select $end
$var wire 8 Z control_reg [7:0] $end
$var wire 8 [ status_reg [7:0] $end
$var reg 8 "* addr0_start_h [7:0] $end
$var reg 8 "+ addr0_start_m [7:0] $end
$var reg 8 ", addr0_start_l [7:0] $end
$var reg 8 "- addr0_end_h [7:0] $end
$var reg 8 ". addr0_end_m [7:0] $end
$var reg 8 "/ addr0_end_l [7:0] $end
$var reg 8 "0 addr1_start_h [7:0] $end
$var reg 8 "1 addr1_start_m [7:0] $end
$var reg 8 "2 addr1_start_l [7:0] $end
$var reg 8 "3 addr1_end_h [7:0] $end
$var reg 8 "4 addr1_end_m [7:0] $end
$var reg 8 "5 addr1_end_l [7:0] $end
$var reg 8 "6 control_reg_int [7:0] $end
$var reg 8 "7 status_reg_int [7:0] $end
$var reg 2 "8 state [1:0] $end
$var reg 3 "9 bit_count [2:0] $end
$var reg 8 ": mosi_shift_reg [7:0] $end
$var reg 8 "; cmd_reg [7:0] $end
$var reg 8 "< addr_reg [7:0] $end
$var reg 1 "= is_write_cmd $end
$var reg 1 "> is_read_cmd $end
$var reg 8 "? miso_shift_reg [7:0] $end
$var wire 1 "@ mgmt_clk_or_mgmt_cs_n $end
$var reg 8 "A control_reg_sync1 [7:0] $end
$var reg 8 "B control_reg_sync2 [7:0] $end
$var reg 8 "C status_reg_sync1 [7:0] $end
$var reg 8 [ status_reg_sync2 [7:0] $end
$var reg 24 "D addr0_start_sync1 [23:0] $end
$var reg 24 "E addr0_start_sync2 [23:0] $end
$var reg 24 "F addr0_end_sync1 [23:0] $end
$var reg 24 "G addr0_end_sync2 [23:0] $end
$var reg 24 "H addr1_start_sync1 [23:0] $end
$var reg 24 "I addr1_start_sync2 [23:0] $end
$var reg 24 "J addr1_end_sync1 [23:0] $end
$var reg 24 "K addr1_end_sync2 [23:0] $end
$upscope $end

$upscope $end

$upscope $end


$scope module u_flash_main $end
$var reg 3 "L state [2:0] $end
$var reg 8 "M shift_in [7:0] $end
$var reg 8 "N shift_out [7:0] $end
$var reg 8 "O current_read_byte [7:0] $end
$var reg 24 "P addr [23:0] $end
$var reg 32 "Q bit_count [31:0] $end
$var reg 32 "R addr_bytes [31:0] $end
$var reg 1 "S is_read_cmd $end
$var reg 8 "T opcode [7:0] $end

$scope begin unnamed$$_vcs_0 $end
$upscope $end


$scope begin unnamed$$_vcs_1 $end
$upscope $end


$scope begin unnamed$$_vcs_2 $end

$scope begin unnamed$$_0 $end
$upscope $end

$upscope $end


$scope begin unnamed$$_vcs_3 $end
$upscope $end

$upscope $end


$scope module u_flash_sec $end
$var reg 3 "U state [2:0] $end
$var reg 8 "V shift_in [7:0] $end
$var reg 8 "W shift_out [7:0] $end
$var reg 8 "X current_read_byte [7:0] $end
$var reg 24 "Y addr [23:0] $end
$var reg 32 "Z bit_count [31:0] $end
$var reg 32 "[ addr_bytes [31:0] $end
$var reg 1 "\ is_read_cmd $end
$var reg 8 "] opcode [7:0] $end

$scope begin unnamed$$_vcs_0 $end
$upscope $end


$scope begin unnamed$$_vcs_1 $end
$upscope $end


$scope begin unnamed$$_vcs_2 $end

$scope begin unnamed$$_0 $end
$upscope $end

$upscope $end


$scope begin unnamed$$_vcs_3 $end
$upscope $end

$upscope $end

$upscope $end

$enddefinitions $end

#0
$dumpvars
xn
0!
x"&
x"'
xu
x^
xV
x}
x~
xW
x"!
x""
0Y
xX
x"#
x"$
xm
xt
x|
x"=
x"@
xo
xd
xe
xf
xg
1"
x"%
x\
xq
x]
xp
xP
0U
xR
0S
0T
xH
xI
xJ
xK
xL
xM
xN
xO
xl
x_
xs
xv
x">
x")
0r
x+
x*
x)
x(
x'
x&
x$
bxxxxxxxxxxxxxxxxxxxxxxxx a
bxxxxxxxx "-
bxxxxxxxx "/
bxxxxxxxx ".
bxxxxxxxxxxxxxxxxxxxxxxxx "F
bxxxxxxxxxxxxxxxxxxxxxxxx "G
bxxxxxxxxxxxxxxxxxxxxxxxx `
bxxxxxxxx "*
bxxxxxxxx ",
bxxxxxxxx "+
bxxxxxxxxxxxxxxxxxxxxxxxx "D
bxxxxxxxxxxxxxxxxxxxxxxxx "E
bxxxxxxxxxxxxxxxxxxxxxxxx c
bxxxxxxxx "3
bxxxxxxxx "5
bxxxxxxxx "4
bxxxxxxxxxxxxxxxxxxxxxxxx "J
bxxxxxxxxxxxxxxxxxxxxxxxx "K
bxxxxxxxxxxxxxxxxxxxxxxxx b
bxxxxxxxx "0
bxxxxxxxx "2
bxxxxxxxx "1
bxxxxxxxxxxxxxxxxxxxxxxxx "H
bxxxxxxxxxxxxxxxxxxxxxxxx "I
bxxxxxxxx {
bxxxxxxxx "<
bxxx "9
bxxxxx y
bxxxxxxxx ";
bxxxxxxxx Z
bxxxxxxxx "6
bxxxxxxxx "A
bxxxxxxxx "B
bxx k
bxxxxxxxx "?
bxxxxxxxx ":
bxxx x
bxxxxxxxx z
bxxx w
bxxxxxxxx "7
bxxxxxxxx "C
bxxxxxxxx [
bxxxxxxxxxxxxxxxxxxxxxxxx i
bxxxxxxxx h
bxxx j
bxx "8
b0000000x -
b0000x000 .
bxxxxxxxxxxxxxxxxxxxxxxxx "(
bxxxxxxxx ,
0"S
b000000000000000000000000 "P
bxxxxxxxx "O
bxxxxxxxx "M
bxxxxxxxx "N
b000 "L
b00000000000000000000000000000000 "R
b00000000000000000000000000000000 "Q
b00000000 "T
0"\
b000000000000000000000000 "Y
bxxxxxxxx "X
bxxxxxxxx "V
bxxxxxxxx "W
b000 "U
b00000000000000000000000000000000 "[
b00000000000000000000000000000000 "Z
b00000000 "]
0Q
1G
b00001000 F
b00001000 /
1#
x1
x3
x2
x0
x5
x7
x6
x4
x9
x;
x:
x8
x=
0?
0@
x>
x<
xB
0D
0E
xC
xA
x%
$end
#1000
11
1$
1"@
00
0%
02
0R
b00000000 -
b00 "8
b000 "9
b00000000 ":
b00000000 ";
b00000000 "<
0"=
0">
bxxxxx000 "7
0")
0J
bxxxxx0xx ,
03
#10000
1!
bxxxxx000 "C
#11000
15
1*
04
0+
06
0)
#20000
0!
#21000
19
1'
0n
1s
08
0(
0:
0&
1W
1O
1L
0V
0N
0K
0X
0P
b00000000 .
0C
0M
b100100xx ,
0<
1=
0>
0A
1B
#30000
1!
0o
0m
0}
0"%
1"!
0"&
0"#
bxxxxx000 [
b000 x
#31000
0"
1U
1r
0t
1I
0H
1q
0p
b11111111 "*
b11111111 "+
b11111111 ",
b11111111 "-
b11111111 ".
b11111111 "/
b11111111 "0
b11111111 "1
b11111111 "2
b11111111 "3
b11111111 "4
b11111111 "5
b00000000 "6
b00000000 "7
b00000000 "A
b00000000 "B
b00000000 Z
0l
b00 k
0_
1\
0]
0u
0d
0e
0f
0g
b00000000 "C
b00000000 [
b111111111111111111111111 "D
b111111111111111111111111 "F
b111111111111111111111111 "H
b111111111111111111111111 "J
b111111111111111111111111 "E
b111111111111111111111111 `
b111111111111111111111111 "G
b111111111111111111111111 a
b111111111111111111111111 "I
b111111111111111111111111 b
b111111111111111111111111 "K
b111111111111111111111111 c
b10010010 ,
07
1;
#40000
0!
#50000
1!
b00000 y
b00000000 z
b00000000 {
b00000000 h
b000000000000000000000000 i
0|
0v
0^
0~
1""
0"'
0"$
b000 w
b000 j
#60000
0!
#70000
1!
#80000
0!
#90000
1!
#100000
0!
#110000
1!
#120000
0!
#130000
1!
#131000
1"
0U
0r
#140000
0!
#150000
1!
#160000
0!
#170000
1!
#180000
0!
#190000
1!
#200000
0!
#210000
1!
#220000
0!
#230000
1!
#231000
01
0$
0"@
#240000
0!
#241000
10
1%
1"@
b00000001 "7
b001 "9
#246000
00
0%
0"@
#250000
1!
b00000001 "C
#251000
10
1%
1"@
b010 "9
#256000
00
0%
0"@
#260000
0!
#261000
10
1%
1"@
b011 "9
#266000
00
0%
0"@
#270000
1!
b00000001 [
#271000
10
1%
1"@
b100 "9
#276000
00
0%
0"@
#280000
0!
#281000
10
1%
1"@
b101 "9
#286000
00
0%
0"@
#290000
1!
#291000
10
1%
1"@
b110 "9
#296000
00
0%
0"@
12
1R
b00000001 -
#300000
0!
#301000
10
1%
1"@
b00000001 ":
b111 "9
#306000
00
0%
0"@
02
0R
b00000000 -
#310000
1!
#311000
10
1%
1"@
b00000010 ":
b000 "9
b00000010 ";
1"=
b00000101 "7
b01 "8
#316000
00
0%
0"@
#320000
0!
#321000
10
1%
1"@
b00000100 ":
b001 "9
#326000
00
0%
0"@
#330000
1!
b00000101 "C
#331000
10
1%
1"@
b00001000 ":
b010 "9
#336000
00
0%
0"@
#340000
0!
#341000
10
1%
1"@
b00010000 ":
b011 "9
#346000
00
0%
0"@
#350000
1!
b00000101 [
#351000
10
1%
1"@
b00100000 ":
b100 "9
#356000
00
0%
0"@
12
1R
b00000001 -
#360000
0!
#361000
10
1%
1"@
b01000001 ":
b101 "9
#366000
00
0%
0"@
#370000
1!
#371000
10
1%
1"@
b10000011 ":
b110 "9
#376000
00
0%
0"@
02
0R
b00000000 -
#380000
0!
#381000
10
1%
1"@
b00000110 ":
b111 "9
#386000
00
0%
0"@
#390000
1!
#391000
10
1%
1"@
b00001100 ":
b000 "9
b00001100 "<
b10 "8
#396000
00
0%
0"@
#400000
0!
#401000
10
1%
1"@
b00011000 ":
b001 "9
#406000
00
0%
0"@
#410000
1!
#411000
10
1%
1"@
b00110000 ":
b010 "9
#416000
00
0%
0"@
12
1R
b00000001 -
#420000
0!
#421000
10
1%
1"@
b01100001 ":
b011 "9
#426000
00
0%
0"@
02
0R
b00000000 -
#430000
1!
#431000
10
1%
1"@
b11000010 ":
b100 "9
#436000
00
0%
0"@
12
1R
b00000001 -
#440000
0!
#441000
10
1%
1"@
b10000101 ":
b101 "9
#446000
00
0%
0"@
#450000
1!
#451000
10
1%
1"@
b00001011 ":
b110 "9
#456000
00
0%
0"@
#460000
0!
#461000
10
1%
1"@
b00010111 ":
b111 "9
#466000
00
0%
0"@
02
0R
b00000000 -
#470000
1!
#471000
10
1%
1"@
b00101110 ":
b000 "9
b00101110 "6
b11 "8
#476000
00
0%
0"@
#480000
0!
#481000
11
1$
1"@
b00 "8
b00000000 ":
b00000000 ";
b00000000 "<
0"=
b00000000 "7
#486000
09
0'
1n
0s
#490000
1!
b00101110 "A
b00000000 "C
#496000
18
1(
#500000
0!
#501000
08
0(
#506000
18
1(
#510000
1!
b00101110 "B
b00101110 Z
b10 k
1]
1d
1f
1g
b00000000 [
#511000
08
0(
#516000
18
1(
#520000
0!
#521000
08
0(
#526000
18
1(
#530000
1!
1p
#531000
08
0(
#536000
18
1(
#540000
0!
#541000
08
0(
#546000
18
1(
#550000
1!
#551000
08
0(
1:
1&
#556000
18
1(
#560000
0!
#561000
08
0(
0:
0&
#566000
18
1(
#570000
1!
#571000
08
0(
#576000
18
1(
#580000
0!
#581000
08
0(
#586000
18
1(
#590000
1!
#591000
08
0(
#596000
18
1(
#600000
0!
#601000
08
0(
#606000
18
1(
#610000
1!
#611000
08
0(
#616000
18
1(
#620000
0!
#621000
08
0(
#626000
18
1(
#630000
1!
#631000
08
0(
#636000
18
1(
#640000
0!
#641000
08
0(
#646000
18
1(
#650000
1!
#651000
08
0(
#656000
18
1(
#660000
0!
#661000
08
0(
#666000
18
1(
#670000
1!
#671000
08
0(
#676000
18
1(
#680000
0!
#681000
08
0(
1:
1&
#686000
18
1(
#690000
1!
#691000
08
0(
#696000
18
1(
#700000
0!
#701000
08
0(
#706000
18
1(
#710000
1!
#711000
08
0(
0:
0&
#716000
18
1(
#720000
0!
#721000
08
0(
1:
1&
#726000
18
1(
#730000
1!
#731000
08
0(
0:
0&
#736000
18
1(
#740000
0!
#741000
08
0(
1:
1&
#746000
18
1(
#750000
1!
#751000
08
0(
0:
0&
#756000
18
1(
#760000
0!
#761000
08
0(
#766000
18
1(
#770000
1!
#771000
08
0(
#776000
18
1(
#780000
0!
#781000
08
0(
1:
1&
#786000
18
1(
#790000
1!
#791000
08
0(
#796000
18
1(
#800000
0!
#801000
08
0(
0:
0&
#806000
18
1(
#810000
1!
#811000
08
0(
1:
1&
#816000
18
1(
#820000
0!
#821000
08
0(
0:
0&
#826000
18
1(
#830000
1!
#831000
08
0(
#836000
18
1(
#840000
0!
#841000
08
0(
1:
1&
#846000
18
1(
#850000
1!
#851000
08
0(
#856000
18
1(
#860000
0!
#861000
08
0(
0:
0&
#866000
18
1(
#870000
1!
#871000
08
0(
#876000
18
1(
#880000
0!
#881000
08
0(
#886000
18
1(
#890000
1!
#891000
08
0(
1:
1&
#896000
18
1(
#900000
0!
#901000
08
0(
0:
0&
#906000
18
1(
#910000
1!
#911000
08
0(
#916000
18
1(
#920000
0!
#921000
08
0(
#926000
18
1(
#930000
1!
#931000
08
0(
#936000
18
1(
#940000
0!
#941000
08
0(
1:
1&
#946000
18
1(
#950000
1!
#951000
08
0(
0:
0&
#956000
18
1(
#960000
0!
#961000
08
0(
#966000
18
1(
#970000
1!
#971000
08
0(
#976000
18
1(
#980000
0!
#981000
08
0(
1:
1&
#986000
18
1(
#990000
1!
#991000
08
0(
0:
0&
#996000
18
1(
#1000000
0!
#1001000
08
0(
1:
1&
#1006000
18
1(
#1010000
1!
#1011000
08
0(
0:
0&
#1016000
18
1(
#1020000
0!
#1021000
08
0(
1:
1&
#1026000
18
1(
#1030000
1!
#1031000
08
0(
#1036000
18
1(
#1040000
0!
#1041000
08
0(
#1046000
18
1(
#1050000
1!
#1051000
08
0(
#1056000
18
1(
#1060000
0!
#1061000
08
0(
0:
0&
#1066000
18
1(
#1070000
1!
#1071000
08
0(
#1076000
18
1(
#1080000
0!
#1081000
08
0(
1:
1&
#1086000
18
1(
#1090000
1!
#1091000
08
0(
0:
0&
#1096000
18
1(
#1100000
0!
#1101000
08
0(
#1106000
18
1(
#1110000
1!
#1111000
08
0(
#1116000
18
1(
#1120000
0!
#1121000
08
0(
1:
1&
#1126000
18
1(
#1130000
1!
#1131000
08
0(
#1136000
18
1(
#1140000
0!
#1141000
08
0(
#1146000
18
1(
#1150000
1!
#1151000
08
0(
0:
0&
#1156000
18
1(
#1160000
0!
#1161000
08
0(
#1166000
18
1(
#1170000
1!
#1171000
08
0(
#1176000
18
1(
#1180000
0!
#1181000
08
0(
#1186000
18
1(
#1190000
1!
#1191000
08
0(
1:
1&
#1196000
18
1(
#1200000
0!
#1201000
08
0(
0:
0&
#1206000
18
1(
#1210000
1!
#1211000
08
0(
#1216000
18
1(
#1220000
0!
#1221000
08
0(
#1226000
18
1(
#1230000
1!
#1231000
08
0(
#1236000
18
1(
#1240000
0!
#1241000
08
0(
#1246000
18
1(
#1250000
1!
#1251000
08
0(
#1256000
18
1(
#1260000
0!
#1261000
08
0(
1:
1&
#1266000
18
1(
#1270000
1!
#1271000
08
0(
#1276000
18
1(
#1280000
0!
#1281000
08
0(
#1286000
18
1(
#1290000
1!
#1291000
08
0(
0:
0&
#1296000
19
1'
0n
1s
#1300000
0!
#1301000
05
0*
1n
0s
0W
0O
0L
b00000010 ,
0=
0B
#1310000
1!
0"!
1"&
b001 x
#1311000
14
1+
1V
1N
1K
b01001010 ,
1<
1A
bxxxxxxx0 "M
b00000000000000000000000000000001 "Q
bxxxxxxx0 "V
b00000000000000000000000000000001 "Z
#1316000
04
0+
0V
0N
0K
b00000010 ,
0<
0A
#1320000
0!
#1321000
14
1+
1V
1N
1K
b01001010 ,
1<
1A
bxxxxxx00 "M
b00000000000000000000000000000010 "Q
bxxxxxx00 "V
b00000000000000000000000000000010 "Z
#1326000
04
0+
0V
0N
0K
b00000010 ,
0<
0A
#1330000
1!
0""
0"&
b001 w
b001 j
#1331000
14
1+
1V
1N
1K
b01001010 ,
1<
1A
bxxxxx000 "M
b00000000000000000000000000000011 "Q
bxxxxx000 "V
b00000000000000000000000000000011 "Z
#1336000
04
0+
0V
0N
0K
b00000010 ,
0<
0A
#1340000
0!
#1341000
14
1+
1V
1N
1K
b01001010 ,
1<
1A
bxxxx0000 "M
b00000000000000000000000000000100 "Q
bxxxx0000 "V
b00000000000000000000000000000100 "Z
#1346000
04
0+
0V
0N
0K
b00000010 ,
0<
0A
#1350000
1!
#1351000
14
1+
1V
1N
1K
b01001010 ,
1<
1A
bxxx00000 "M
b00000000000000000000000000000101 "Q
bxxx00000 "V
b00000000000000000000000000000101 "Z
#1356000
04
0+
0V
0N
0K
b00000010 ,
0<
0A
#1360000
0!
#1361000
14
1+
1V
1N
1K
b01001010 ,
1<
1A
bxx000000 "M
b00000000000000000000000000000110 "Q
bxx000000 "V
b00000000000000000000000000000110 "Z
#1366000
04
0+
16
1)
0V
0N
0K
1X
1P
b00001000 .
1C
1M
b00100010 ,
0<
1>
0A
#1370000
1!
1"#
#1371000
14
1+
1V
1N
1K
b01101010 ,
1<
1A
bx0000001 "M
b00000000000000000000000000000111 "Q
bx0000001 "V
b00000000000000000000000000000111 "Z
#1376000
04
0+
0V
0N
0K
b00100010 ,
0<
0A
#1380000
0!
#1381000
14
1+
1V
1N
1K
b01101010 ,
1<
1A
b00000011 "M
b00000000000000000000000000001000 "Q
b00000000000000000000000000000000 "Q
b00000011 "T
1"S
b001 "L
b00000011 "V
b00000000000000000000000000001000 "Z
b00000000000000000000000000000000 "Z
b00000011 "]
1"\
b001 "U
#1386000
04
0+
06
0)
0V
0N
0K
0X
0P
b00000000 .
0C
0M
b00000010 ,
0<
0>
0A
#1390000
1!
0"#
1"$
#1391000
14
1+
1V
1N
1K
b01001010 ,
1<
1A
b00000110 "M
b00000000000000000000000000000001 "Q
b00000110 "V
b00000000000000000000000000000001 "Z
#1396000
04
0+
0V
0N
0K
b00000010 ,
0<
0A
#1400000
0!
#1401000
14
1+
1V
1N
1K
b01001010 ,
1<
1A
b00001100 "M
b00000000000000000000000000000010 "Q
b00001100 "V
b00000000000000000000000000000010 "Z
#1406000
04
0+
0V
0N
0K
b00000010 ,
0<
0A
#1410000
1!
0"$
#1411000
14
1+
1V
1N
1K
b01001010 ,
1<
1A
b00011000 "M
b00000000000000000000000000000011 "Q
b00011000 "V
b00000000000000000000000000000011 "Z
#1416000
04
0+
0V
0N
0K
b00000010 ,
0<
0A
#1420000
0!
#1421000
14
1+
1V
1N
1K
b01001010 ,
1<
1A
b00110000 "M
b00000000000000000000000000000100 "Q
b00110000 "V
b00000000000000000000000000000100 "Z
#1426000
04
0+
0V
0N
0K
b00000010 ,
0<
0A
#1430000
1!
#1431000
14
1+
1V
1N
1K
b01001010 ,
1<
1A
b01100000 "M
b00000000000000000000000000000101 "Q
b01100000 "V
b00000000000000000000000000000101 "Z
#1436000
04
0+
0V
0N
0K
b00000010 ,
0<
0A
#1440000
0!
#1441000
14
1+
1V
1N
1K
b01001010 ,
1<
1A
b11000000 "M
b00000000000000000000000000000110 "Q
b11000000 "V
b00000000000000000000000000000110 "Z
#1446000
04
0+
0V
0N
0K
b00000010 ,
0<
0A
#1450000
1!
#1451000
14
1+
1V
1N
1K
b01001010 ,
1<
1A
b10000000 "M
b00000000000000000000000000000111 "Q
b10000000 "V
b00000000000000000000000000000111 "Z
#1456000
04
0+
0V
0N
0K
b00000010 ,
0<
0A
#1460000
0!
#1461000
14
1+
1V
1N
1K
b01001010 ,
1<
1A
b00000000 "M
b00000000000000000000000000001000 "Q
b00000000000000000000000000000000 "Q
b010 "L
b00000000000000000000000000000001 "R
b00000000 "V
b00000000000000000000000000001000 "Z
b00000000000000000000000000000000 "Z
b010 "U
b00000000000000000000000000000001 "[
#1466000
04
0+
0V
0N
0K
b00000010 ,
0<
0A
#1470000
1!
#1471000
14
1+
1V
1N
1K
b01001010 ,
1<
1A
b00000000000000000000000000000001 "Q
b00000000000000000000000000000001 "Z
#1476000
04
0+
16
1)
0V
0N
0K
1X
1P
b00001000 .
1C
1M
b00100010 ,
0<
1>
0A
#1480000
0!
#1481000
14
1+
1V
1N
1K
b01101010 ,
1<
1A
b00000001 "M
b00000000000000000000000000000010 "Q
b00000001 "V
b00000000000000000000000000000010 "Z
#1486000
04
0+
0V
0N
0K
b00100010 ,
0<
0A
#1490000
1!
1"#
#1491000
14
1+
1V
1N
1K
b01101010 ,
1<
1A
b00000011 "M
b00000000000000000000000000000011 "Q
b00000011 "V
b00000000000000000000000000000011 "Z
#1496000
04
0+
0V
0N
0K
b00100010 ,
0<
0A
#1500000
0!
#1501000
14
1+
1V
1N
1K
b01101010 ,
1<
1A
b00000111 "M
b00000000000000000000000000000100 "Q
b00000111 "V
b00000000000000000000000000000100 "Z
#1506000
04
0+
06
0)
0V
0N
0K
0X
0P
b00000000 .
0C
0M
b00000010 ,
0<
0>
0A
#1510000
1!
0"#
1"$
#1511000
14
1+
1V
1N
1K
b01001010 ,
1<
1A
b00001110 "M
b00000000000000000000000000000101 "Q
b00001110 "V
b00000000000000000000000000000101 "Z
#1516000
04
0+
0V
0N
0K
b00000010 ,
0<
0A
#1520000
0!
#1521000
14
1+
1V
1N
1K
b01001010 ,
1<
1A
b00011100 "M
b00000000000000000000000000000110 "Q
b00011100 "V
b00000000000000000000000000000110 "Z
#1526000
04
0+
16
1)
0V
0N
0K
1X
1P
b00001000 .
1C
1M
b00100010 ,
0<
1>
0A
#1530000
1!
1"#
0"$
#1531000
14
1+
1V
1N
1K
b01101010 ,
1<
1A
b00111001 "M
b00000000000000000000000000000111 "Q
b00111001 "V
b00000000000000000000000000000111 "Z
#1536000
04
0+
0V
0N
0K
b00100010 ,
0<
0A
#1540000
0!
#1541000
14
1+
1V
1N
1K
b01101010 ,
1<
1A
b01110011 "M
b00000000000000000000000000001000 "Q
b00000000000000000000000000000000 "Q
b000000000111001100000000 "P
b00000000000000000000000000000010 "R
b01110011 "V
b00000000000000000000000000001000 "Z
b00000000000000000000000000000000 "Z
b000000000111001100000000 "Y
b00000000000000000000000000000010 "[
